{
  "A" : {
    "hostname": "A",
    "thirdParties": [
      "B",
      "D"
    ]
  },
  "B" : {
    "hostname": "B",
    "thirdParties": [
      "A",
      "C"
    ]
  },
  "C" : {
    "hostname": "C",
    "thirdParties": [
      "D",
      "B"
    ]
  },
  "D" : {
    "hostname": "D",
    "thirdParties": [
      "A",
      "C"
    ]
  },
  "X" : {
    "hostname": "X",
    "thirdParties": [
      "Y"
    ]
  },
  "Y" : {
    "hostname": "Y",
    "thirdParties": [
      "X"
    ]
  }
}